…
``` r
saveRDS(all_tweets_all_columns, paste0(hashtag, Sys.Date(), ".Rds"))

all_tweets_some_columns <- all_tweets_all_columns %>%
  select(created_at, screen_name, text, urls_expanded_url, favorite_count, retweet_count) 

# Investigate with
# datatable(all_tweets_some_columns)
all_tweets_some_columns %>% 
  arrange(desc(favorite_count)) %>% 
  mutate(text = str_sub(text, 1, 60)) %>% 
  select(screen_name, retweet_count, text) 
```

    ## # A tibble: 1,749 x 3
    ##      screen_name retweet_count
    ##            <chr>         <int>
    ##  1      AmeliaMN           218
    ##  2          drob           130
    ##  3     kearneymw           202
    ##  4    juliasilge           107
    ##  5    JennyBryan            76
    ##  6     thmscwlls            77
    ##  7 hadleywickham            19
    ##  8  datapointier            63
    ##  9          drob            72
    ## 10          drob            47
    ## # ... with 1,739 more rows, and 1 more variables: text <chr>

``` r
popular_urls  <- all_tweets_some_columns %>% filter(!is.na(urls_expanded_url), retweet_count > 10) %>% unnest()

popular_urls %>% 
  arrange(desc(retweet_count)) %>% 
  select(screen_name, retweet_count, urls_expanded_url) 
```

    ## # A tibble: 70 x 3
    ##    screen_name retweet_count
    ##          <chr>         <int>
    ##  1    AmeliaMN           218
    ##  2   kearneymw           202
    ##  3   kearneymw           202
    ##  4   kearneymw           202
    ##  5   kearneymw           202
    ##  6   kearneymw           202
    ##  7   kearneymw           202
    ##  8  juliasilge           107
    ##  9     rstudio           104
    ## 10  JennyBryan            76
    ## # ... with 60 more rows, and 1 more variables: urls_expanded_url <chr>
…
